# because Vela so often used for testing, lots of bad/nonstandard files
# separate for sanity

@bad_config

# PSR J0835-4510
# non-detections (Vela!)
w050727_013130.rf
a050727_022721.rf
w050728_225924.rf
w050728_230622.rf
a060914_002437.rf
a060914_003956.rf
r070419_070910.rf
a070814_040420.rf
s080226_090210.rf
s080226_090616.rf
s080507_053800.rf
s081003_080617.rf
s090814_034540.rf
t130728_233300.rf
t130728_233600.rf
t130729_003539.rf
# frequency-phase issues
w030417_010800.rf
w040618_005223.rf
w040825_191854.rf
a050621_040914.rf
a050801_233020.rf
a050801_232630.rf
r070605_065530.rf
r070605_065818.rf
r070605_071222.rf
r070605_073019.rf
r071005_020625.rf
s080220_103259.rf
t100518_104154.rf
t100519_044432.rf
t100519_064431.rf
t100519_064931.rf
t100519_065603.rf
t100519_065903.rf
t100519_070050.rf
t100519_070722.rf
t100519_071734.rf
t140224_130728.rf
t140224_131429.rf
t140224_131804.rf
t140424_075137.rf
# too many artefacts
w031103_144326.rf
w031103_145147.rf
w040708_045131.rf
# a huge string of P999 obs with 64 MHz LO at 20cm -- switch matrix tests?
r090308_042827.rf
r090308_052906.rf
r090308_062946.rf
r090308_073026.rf
r090308_083106.rf
r090308_093146.rf
r090308_103337.rf
r090308_113417.rf
r090308_123456.rf
r090308_133536.rf
r090308_143616.rf
r090308_153656.rf
r090308_163736.rf
r090308_173816.rf
r090308_183856.rf
r090308_193936.rf
r090309_120345.rf
r090309_130426.rf
r090309_140507.rf
r090309_150546.rf
r090309_160626.rf
r090309_170707.rf
r090309_180747.rf
r090309_190826.rf
r090309_200906.rf
r090309_210946.rf
r090310_044850.rf
r090310_054951.rf
r090310_065058.rf
r090310_075157.rf
r090310_085237.rf
r090310_092324.rf
r090310_102406.rf
r090310_112446.rf
r090310_122526.rf
r090310_132606.rf
r090310_142710.rf
r090310_152807.rf
r090310_162907.rf
r090310_173008.rf
r090310_183109.rf
r090313_044613.rf
r090313_054656.rf
r090313_064737.rf
r090313_074816.rf
r090313_084856.rf
r090313_094937.rf
r090313_105019.rf
r090313_115056.rf
r090313_125137.rf
r090313_135216.rf
r090314_053205.rf
r090318_034153.rf
r090318_034600.rf
r090318_044637.rf
r090318_054718.rf
r090318_064757.rf
r090318_074837.rf
r090318_084916.rf
r090318_094957.rf
r090318_105037.rf
r090318_115117.rf
r090318_125157.rf
r090319_091211.rf
r090319_101248.rf
r090319_111328.rf
r090319_121408.rf
r090319_131447.rf
r090319_141528.rf
r090319_151607.rf
r090319_161647.rf
r090319_171727.rf
r090319_181808.rf
r090330_104305.rf
r090330_114348.rf
r090330_134508.rf
r090330_144547.rf
r090330_154628.rf
r090330_164709.rf
r090331_090709.rf
r090331_100748.rf
r090331_110827.rf
r090331_120907.rf
r090331_130948.rf
r090331_141028.rf
r090331_151108.rf
r090331_161149.rf
r090331_171227.rf
r090401_113223.rf
r090401_123308.rf
r090401_133348.rf
r090401_143428.rf
r090401_153509.rf
r090401_163547.rf
r090402_055446.rf
r090402_065528.rf
r090402_075608.rf
r090402_085648.rf
r090402_095728.rf
r090402_105808.rf
r090402_115847.rf
r090402_125928.rf
r090402_140009.rf
r090402_150048.rf
r090404_025148.rf
r090404_035228.rf
r090404_045308.rf
r090404_055348.rf
r090404_065428.rf
r090404_075507.rf
r090404_085549.rf
r090404_095628.rf
r090404_105708.rf
r090404_115747.rf
r090405_065257.rf
r090405_075338.rf
r090405_085419.rf
r090405_095458.rf
r090405_105538.rf
r090405_115618.rf
r090405_125658.rf
r090405_135739.rf
r090405_145819.rf
r090405_155858.rf
r090406_045754.rf
r090406_055840.rf
r090406_065919.rf
r090407_032158.rf
r090407_042238.rf
r090407_052329.rf
r090407_062408.rf
r090407_072448.rf
r090407_082528.rf
r090407_092608.rf
r090407_102648.rf
r090407_112728.rf
r090407_122808.rf
r090411_032637.rf
r090411_042715.rf
r090411_052754.rf
r090411_062835.rf
r090411_072914.rf
r090411_082955.rf
r090411_093034.rf
r090411_103115.rf
r090411_113154.rf
r090411_123235.rf
r090420_011052.rf
r090420_021132.rf
r090420_031212.rf
r090420_041252.rf
r090420_051332.rf
r090420_061411.rf
r090420_071452.rf
r090420_081532.rf
r090420_091612.rf
r090420_101652.rf
r090421_012352.rf
r090421_022432.rf
r090421_032513.rf
r090421_042553.rf
r090421_052632.rf
r090421_062712.rf
r090421_072753.rf
r090421_082832.rf
r090421_092912.rf
r090421_102952.rf
r090422_080858.rf
r090422_090935.rf
r090422_101018.rf
r090422_111054.rf
r090422_121135.rf
r090422_131216.rf
r090422_141254.rf
r090422_151335.rf
r090423_045757.rf
r090423_055837.rf
r090423_065917.rf
r090423_075958.rf
r090423_090038.rf
r090423_100119.rf
r090423_110158.rf
r090423_120237.rf
r090423_130317.rf
r090423_140357.rf
# P628 PAF tests -- weird LO
t080817_034858.rf
t080817_035356.rf
t080817_040053.rf
t080817_042713.rf
t080817_043253.rf
t080817_044614.rf
t080817_052509.rf
t080817_060125.rf
t080817_060602.rf
t081027_224746.rf
t081027_225136.rf
t081027_225844.rf
t081027_231002.rf
t081027_231434.rf
t081027_232015.rf
t081027_232409.rf
t081027_233326.rf
t081027_235838.rf
t081028_000231.rf
t081028_001628.rf
t081028_004217.rf
t081028_004555.rf
t081028_004812.rf
t081028_005423.rf
t081028_012019.rf
t081028_012937.rf
t081028_013533.rf
t081028_014343.rf
t081028_014726.rf
t090121_072023.rf
t090121_073027.rf
t090121_115309.rf
t090122_093159.rf
# P417 weird LO
t080910_040254.rf
t080913_033808.rf
t080913_034901.rf
t080913_035516.rf
t080913_035948.rf
t080913_040335.rf
t080913_040736.rf
t080913_041042.rf
t080913_041418.rf
t080913_042026.rf
t080913_042411.rf
t080913_042759.rf
# more PAF and backend testing P999 and P628 and P456
t080822_053757.rf
t080822_054801.rf
t080822_061412.rf
t080822_063930.rf
t080822_065238.rf
t080822_075557.rf
t080822_213608.rf
t080822_215321.rf
t080822_220440.rf
t080822_221123.rf
t080822_221501.rf
t080822_222038.rf
t080822_222337.rf
t080822_222700.rf
t080822_222901.rf
t080822_223137.rf
t080822_223528.rf
t080822_223837.rf
t080822_224041.rf
t080822_224422.rf
t080822_224837.rf
t080822_225203.rf
t080822_225356.rf
t080822_225559.rf
t080822_225816.rf
t080822_231520.rf
t081230_201417.rf
t080817_034858.rf
t080817_035356.rf
t080817_040053.rf
t080817_042713.rf
t080817_043253.rf
t080817_044614.rf
t080817_052509.rf
t080817_060125.rf
t080817_060602.rf
s080816_220637.rf
s080816_222629.rf
s080816_225228.rf
s080816_230543.rf
s080816_232305.rf
s080817_000856.rf
s080817_003539.rf
s080817_005915.rf
s080817_010425.rf
s080817_013618.rf
s080817_014113.rf
s080817_015211.rf
s080817_030122.rf
s080817_031235.rf
s080817_033555.rf
s080813_024922.rf
s080816_045156.rf
s080816_045900.rf
s080816_051727.rf
s080816_053041.rf
s080816_055020.rf
s080816_060522.rf
s080816_063142.rf
s080816_064806.rf
s080816_065320.rf
s080816_070159.rf
s080816_073759.rf
s080816_074136.rf
s080816_074919.rf
s080816_075740.rf
s080816_080615.rf
s080816_081443.rf
s080816_082358.rf
r080813_080745.rf
r080813_082433.rf
# bad cal? flux scale is wrong and profile shape weird
r080530_065124.rf
r080531_040628.rf
# wrong LO
t081006_233036.rf
r090505_031354.rf
r090505_041435.rf
r090505_051516.rf
r090505_061554.rf
r090505_071632.rf
r090505_081715.rf
r090505_091751.rf
r090505_101831.rf
r090505_111911.rf
r090505_121951.rf
t130131_070547.rf
# bad level setting
t110302_012034.rf
# uses 1GHz of band at 20cm
t100620_104758.rf
t100620_095531.rf
t100620_092800.rf
t100620_060830.rf
t100620_060552.rf
t100620_052629.rf
s100620_034413.rf
# low S/N
s140324_092114.rf
s140324_091757.rf

# I dunno, a weird SUPERB obs -- off axis?
J0835-4510
t160120_051604.rf
t160121_034637.rf
