# Since commissioning, PDFB4 has occasionally lost 5MHz phase lock, which
# causes the pulsar phase to drift throughout an observation.

# It is typically obvious, but occasionally phase lock is only briefly lost,
# causing a TOA bias.  It is safest to filter all affected observations.

# The major issues start in Dec, 2011, but there is evidence for very small
# shifts in November and possibly even earlier.

# The marker below is used to apply the correct flag to the data.
@pdfb4_phase_lock

# PSR J0437-4715
# observations below added by MTK, Sep 2014
t120522_223611.rf
t120523_000057.rf
t120523_022745.rf
t120505_052114.rf
t111202_110005.rf
t111203_075447.rf
t111203_084637.rf
t111203_094105.rf
t111204_131937.rf
t111217_110957.rf
t111219_161747.rf
t111219_111755.rf
# NB these observations are not noted in timeline but have obvious symptoms
t110203_091111.rf
t110203_100542.rf
t110203_102929.rf
t110203_105403.rf
t110203_111812.rf
t110203_114719.rf
t110203_123252.rf
t110203_124842.rf
t110203_131252.rf
t110203_133722.rf
t110203_140132.rf
t110203_142557.rf
t110203_145002.rf
t110203_073042.rf
t110203_075447.rf
t110203_082116.rf
t110203_084637.rf
t110203_094105.rf
# observations below added by MTK, Jan 2015
# clearly drifting
t091127_141218.rf
t100711_221158.rf
# these are subtle
t111016_173658.rf
t111203_182017.rf
t111218_113745.rf
t120408_022040.rf
t110203_070630.rf
t120505_024424.rf
t111118_154817.rf
t110203_061812.rf

# PSR J0613-0200
# observations added by MTK Sep 2014
t111202_132635.rf
t111203_132453.rf
t111204_155033.rf
t111217_122605.rf
# observations added by MTK Jan 2015
t091127_125717.rf
# NB these are not clear by eye but clearly out of trend
t111016_202132.rf # very subtle
t111218_125503.rf
t111219_134703.rf
t120122_090733.rf

# PSR J0711-6830
t111202_121355.rf # a bit dubious, but large chi^2 for S/N
t111203_121227.rf
t111204_204048.rf
t120523_034125.rf

# PSR J1017-7156
# observations added by MTK Jan 2015
t111017_013657.rf
t111018_185539.rf
t111030_000224.rf
t111202_144107.rf
t111120_004227.rf
t111120_142627.rf
t111204_192807.rf
t111217_161816.rf
t111217_213715.rf
t111218_153355.rf
t111219_123257.rf

#PSR J1024-0719
# observations added by MTK Oct 2014
t091127_163826.rf
t091127_171834.rf
t111202_170135.rf
t111202_194455.rf
t111217_135803.rf
t111217_201635.rf
t111219_213444.rf

# PSR J1045-4509
# observations added by MTK Oct 2014
t091127_192510.rf
t111202_155113.rf
t111203_155115.rf
t111204_181809.rf
t111218_164421.rf
t120406_080040.rf

# PSR J1022+1001
# observations added by MTK May 2014
t120503_113437.rf
# observations added by MTK Sep 2014
t091127_174901.rf
t111204_170415.rf
t111202_183255.rf
t111203_193857.rf
t120406_091225.rf
t120407_094736.rf
# observations added by MTK Jan 2015
# below is subtle but out of trend
t111218_182417.rf

# PSR J1600-3053
# observations added by MTK Oct 2014
t091127_213310.rf
t111202_205919.rf
t111203_205255.rf
t111218_001725.rf
t111219_201525.rf
t120406_125128.rf
t120408_175420.rf
t120420_132256.rf
t120407_132341.rf

# PSR J1603-7202
# observations added by MTK Sep 2014
t091127_201250.rf
# observations added by MTK Jan 2015
# these are subtle but out of trend
t110914_012415.rf
t111201_065457.rf
t111219_185955.rf

# PSR J1643-1224
# observations added by MTK Oct 2014
t091127_224220.rf
t111202_220849.rf
t111203_220458.rf
t111218_012909.rf
t111218_211819.rf
t120406_140104.rf
t120408_190441.rf

# PSR J1713+0747
# observations below added by MTK, 2014
t111018_073209.rf
t111029_035144.rf
t111029_040813.rf
t111120_041857.rf
t111203_003539.rf
t111203_043845.rf # subtle
t111217_225855.rf
t111218_222917.rf # very subtle
t120406_162340.rf
t120407_155811.rf
t120419_184218.rf
t120419_191153.rf
t120420_154258.rf
# following are subtle, out of trend
t110925_043924.rf
t110930_070325.rf
t111017_025335.rf

# PSR J1730-2304
# observations added by MTK Jan 2015
t111203_023005.rf
t111204_002545.rf
t111218_052026.rf
t111219_021159.rf
t120406_181631.rf
t120407_194044.rf
t120420_201224.rf

# PSR J1744-1134
# observations added by MTK Sep 2014
t111202_231759.rf
t111203_231409.rf
t111218_032020.rf
t111218_234149.rf
t111219_224846.rf
t120406_151021.rf
t120407_170959.rf
t120408_205701.rf # subtle but out of trend and adjacent obs. have it
t120420_190034.rf
# not sure if this one is real, need to study this epoch
t111017_091229.rf

# PSR J1824-2452A
# observations added by MTK Jan 2015
t111119_054140.rf
t111203_062829.rf
t111204_025545.rf
t111204_060817.rf
t111219_005517.rf
t111220_000116.rf
t120406_212521.rf

# PSR J1857+0943
# observations added by MTK Jan 2015
t120420_174338.rf
t120406_173651.rf
t120419_202119.rf
t111218_043607.rf # very subtle

# PSR J1909-3744
# observations added by MTK May 2014
t100512_214458.rf
t100512_223321.rf
t111201_075241.rf
t111203_070901.rf
t111204_065031.rf
t111204_080201.rf
t111217_074634.rf
t111217_075555.rf
t111218_063121.rf
t111219_064111.rf
t120406_223601.rf
t120407_205110.rf
t120408_225421.rf
t120419_223610.rf

# PSR J1939+2134
# observations added by MTK Jan 2015
t120420_182140.rf
t120408_201620.rf
t120406_192851.rf
t111218_024130.rf
t111203_034201.rf
t111203_055045.rf
t111219_032705.rf

# PSR J2124-3358
# observations added by MTK Oct 2014
t091127_110230.rf
t111202_090614.rf
t120407_011051.rf
t120407_231953.rf
t120420_010058.rf

# PSR J2129-5721
# observations added by MTK Jan 2015
t111201_103055.rf
t111217_084635.rf
t120407_014821.rf

# PSR J2145-0750
# observations added by MTK Oct 2014
t091127_094133.rf
t111120_101440.rf
t111201_091905.rf
t111203_082325.rf
t120407_000041.rf
t120419_214113.rf
t120419_235104.rf
t120522_211840.rf

# PSR J2241-5236
 # perhaps a stretch to call these phase lock
t111016_151150.rf
t111017_153630.rf
t111030_073140.rf
t111119_131054.rf
t111202_094501.rf
t111203_104941.rf
t111204_091655.rf
t111204_114742.rf
t111217_095621.rf
t111218_074555.rf
t111218_101521.rf
t120408_001814.rf
t120408_002816.rf
t120408_033713.rf
