# The second tcs system cannot correctly set the LO, but is able to identify
# when the LO mismatches the data.  Occasionally the observer runs the
# script that sets the centre freq to 3100 instead of 3094.  The channels
# are misidentified because tcs and the DFBs think the centre freq is
# 3094 MHz.  Hence, the channel labels and OBS_FREQ fields should be
# adjusted.

# NB that this is just the flip side of the lo_3100_3094 case, and is
# primarily because P574 continues to use 3094.

# these are a batch of observations identifed taken during the P574
# program -- not all observations during the run were affected, as at
# some point the LO changed to 3094 (correct setting for program)
# LO reads 3100 from 03:58:31 until 23:27:11
t110819_040534.rf
t110819_041853.rf
t110819_042244.rf
t110819_042733.rf
t110819_043044.rf
t110819_043753.rf
t110819_044253.rf
t110819_044553.rf
t110819_045153.rf
t110819_045453.rf
t110819_050004.rf
t110819_050524.rf
t110819_051201.rf
t110819_051943.rf
t110819_052733.rf
t110819_053921.rf
t110819_055013.rf
t110819_055303.rf
t110819_055553.rf
t110819_055943.rf
t110819_060733.rf
t110819_061523.rf
t110819_063121.rf
t110819_064443.rf
t110819_065434.rf
t110819_070124.rf
t110819_070613.rf
t110819_071013.rf
t110819_071703.rf
t110819_072304.rf
t110819_072702.rf
t110819_074934.rf
t110819_075723.rf
t110819_080013.rf
t110819_080603.rf
t110819_080853.rf
t110819_081155.rf
t110819_081443.rf
t110819_083253.rf
t110819_083545.rf
t110819_083855.rf
t110819_084223.rf
t110819_084532.rf
t110819_084931.rf
t110819_085231.rf
t110819_085524.rf
t110819_085821.rf
t110819_090333.rf
t110819_090829.rf
t110819_091206.rf
t110819_091656.rf
t110819_093025.rf
t110819_093724.rf
t110819_094313.rf
t110819_095903.rf
t110819_100153.rf
t110819_100853.rf
t110819_101143.rf
t110819_101633.rf
t110819_102124.rf
t110819_103223.rf
t110819_104333.rf
t110819_105253.rf
t110819_105543.rf
t110819_110133.rf
t110819_110723.rf
t110819_111013.rf
t110819_111513.rf
t110819_111822.rf
t110819_112113.rf
t110819_112404.rf
t110819_115017.rf
t110819_115703.rf
t110819_120153.rf
t110819_122444.rf
t110819_122733.rf
t110819_123323.rf
t110819_123613.rf
t110819_124045.rf
t110819_125413.rf
t110819_130647.rf
t110819_130933.rf
t110819_131323.rf
t110819_131613.rf
t110819_133403.rf
t110819_133653.rf
t110819_134143.rf
t110819_134433.rf
t110819_135023.rf
t110819_135513.rf
t110819_135803.rf
t110819_140053.rf
t110819_141834.rf
t110819_142125.rf
t110819_142514.rf
t110819_142804.rf
t110819_143114.rf
t110819_144914.rf
t110819_194226.rf
t110819_194545.rf
t110819_195320.rf
t110819_195611.rf
t110819_201922.rf
t110819_203212.rf
t110819_210704.rf
t110819_211300.rf
t110819_211745.rf
t110819_212218.rf
t110819_213203.rf
t110819_213553.rf
t110819_214450.rf
t110819_215738.rf
t110819_220354.rf
t110819_221043.rf
t110819_222645.rf
t110819_223110.rf
t110819_225354.rf
t110819_225644.rf
# LO reads 3094 at 23:29:23
#t110819_233143.rf
#t110819_233634.rf
#t110819_233923.rf
#t110819_234613.rf
#t110819_235003.rf
#t110819_235255.rf

# cals too
t110819_040325.cf
t110819_043538.cf
t110819_051734.cf
t110819_052522.cf
t110819_060528.cf
t110819_064233.cf
t110819_071448.cf
t110819_074727.cf
t110819_083041.cf
t110819_090123.cf
t110819_093517.cf
t110819_100648.cf
t110819_104117.cf
t110819_111303.cf
t110819_114802.cf
t110819_122234.cf
t110819_125210.cf
t110819_133155.cf
t110819_141627.cf
t110819_144708.cf
t110819_150622.cf
t110819_194018.cf
t110819_201713.cf
t110819_210458.cf
t110819_213000.cf
t110819_220147.cf
t110819_225148.cf
#t110819_232931.cf
