@manual

w040708_085926.cf -z 329,355-361
w040708_111615.cf -z 329,355-361
a060917_223616.cf 2
a070430_192626.cf 2
a070430_220016.cf 1
r070722_033955.cf 2,3
a070722_140321.cf 0,2
r070722_140324.cf 3
a070907_100645.cf 2
a070909_211811.cf 1
r071116_013709.cf 2
r071116_014205.cf 0
r071116_044944.cf 0
r071116_051035.cf 1,2
r071116_052208.cf 0
r071116_062111.cf 2
r071116_064447.cf 1
r071117_001027.cf 1
r071117_021237.cf 1
r071117_031017.cf 1
r071117_032012.cf 2
r071117_032500.cf 1
r071117_035024.cf 2
r071206_034916.cf 1
r071211_221442.cf 1
r071212_225556.cf 2
r071213_041728.cf 0
r071215_025632.cf 1
r071215_195806.cf 2
r071216_030252.cf 0
r071216_040144.cf 0,1
r071216_043223.cf 0
r071216_055002.cf 2
r071216_055654.cf 2
r071216_213332.cf 1
r071217_023238.cf 1
r071217_030823.cf 2
r071217_035952.cf 0
r071217_044544.cf 0
r071217_051232.cf 1,2
r071217_052155.cf 1
r071217_052924.cf 2
r071217_053904.cf 1
r080113_020559.cf 1
r080208_215619.cf 0
r080208_221900.cf 1
r080208_224402.cf 0
r080208_230214.cf 0
r080208_231324.cf 2
r080208_232011.cf 0
r080208_234240.cf 0
r080209_002548.cf 2
r080209_004420.cf 0
r080209_010134.cf 2
r080209_010633.cf 0
r080209_011641.cf 1
r080209_014449.cf 0
r080209_023723.cf 2
r080209_025000.cf 0
r080209_105240.cf 0
r080209_105833.cf 0
r080209_110630.cf 0
r080322_205717.cf 1
r080322_213049.cf 1
r080322_233539.cf 1
r080323_000453.cf 2
r080408_052800.cf 0
r080511_044308.cf 1
r080511_051147.cf 0
r080511_075228.cf 3
r080511_172655.cf 3
r080616_102720.cf 3
s080725_052012.cf 0
s080906_233624.cf 1
s081004_022339.cf 0
s081004_030500.cf 2
s081023_065426.cf 3
s081028_014541.cf 2
s081201_234955.cf 0,1
s081219_235206.cf 2
s090126_003551.cf 3
t090312_092644.cf 0
t090410_065956.cf 2,3
t090829_013943.cf 0
t090829_064837.cf 3
t090312_204900.cf 0
s090923_030050.cf 0
t091110_055142.cf 2
s100109_101013.cf 1
s100109_202735.cf 1
s100206_233432.cf 1
s100207_000533.cf 2
s100207_015045.cf 1,2
s100208_074022.cf 2
s100208_225641.cf 0
s100209_022703.cf 2
s100209_025840.cf -z 130,165,174,297,298,341,466 -w 1
s100317_043908.cf 1
s100317_172226.cf 0
s100415_181954.cf 1
s100418_064530.cf 2
s100616_180149.cf 0
s100821_102143.cf 2
s100821_014403.cf 1-2
s100821_104434.cf 3
s100821_111534.cf 1
s100821_132930.cf 1
s100922_053228.cf 0,1
s101107_013412.cf 1,2
s101107_053428.cf 1,2
s101107_085336.cf 2
s101129_205617.cf 0
s101130_013555.cf 2
s101130_020646.cf 0
s101130_040938.cf 0
s101130_044018.cf 3
s101221_024104.cf 3
s101221_045543.cf 3
s111008_050157.cf 0
s111201_230336.cf 2
s111202_064910.cf 0,2
s111217_033446.cf 2
s120115_033731.cf 2
s120220_235712.cf 0,3
s120316_062700.cf 0,1
s120316_080547.cf 0,1
s120415_223227.cf 0
s120713_234325.cf 0,2
s121012_234008.cf 0
s121013_023327.cf 3
s121013_053648.cf 0
s121124_060640.cf 3
s131012_171101.cf 2,3
s130118_080110.cf 1-3
s130118_104120.cf 1-3
s130118_111252.cf 1-3
s130118_114700.cf 1-3
s130118_123116.cf 1-3
s130118_141004.cf 1-3
s130118_151923.cf 1-3
s130118_155210.cf 1-3
s130118_165902.cf 1-3
s130118_172858.cf 1-3
s130118_180128.cf 1-3
s130118_190326.cf 1-3
s130118_194738.cf 1-3
s130118_231146.cf 1-3
s130118_234550.cf 1-3
s130119_001659.cf 1-3
s130119_004657.cf 1-3
s130119_011945.cf 1-3
s130119_013637.cf 2-4
s130119_020844.cf 1-3
s130119_024337.cf 1-3
s130119_032251.cf 1-3
s130119_035435.cf 1-3
s130921_055628.cf 0,2
s131012_155312.cf 1
t141202_045233.cf 2,3
t150707_053213.cf 1
t150707_061039.cf 0
t150825_050755.cf 1
t160122_012405.cf -z 879-945
