# These observations are taken at a small sun angle and highly affected
# by the solar wind and environment.

@solar_wind

# PSR J0614+2229
s130623_005550.rf
t140623_005544.rf

# PSR J1730-2304

# haven't confirmed this one, need to be more systematic
# but the solar ripple is clear in bandpass
r071218_052051.rf

t081213_223754.rf

s091215_221919.rf
t091215_221919.rf
r091215_221929.rf
b091215_221930.rf
b091216_020540.rf
t091216_020544.rf
s091216_020529.rf
r091216_020556.rf
r091216_050121.rf
s091216_050119.rf
t091216_050119.rf
b091216_050130.rf

m2007-12-18-05:20:53.rf
n2007-12-18-05:20:53.rf
n2007-12-18-22:06:00.rf
n2007-12-19-03:21:33.rf
s111218_052026.rf
s111219_013548.rf
s111219_021159.rf
p111219_013600.rf
p111219_020656.rf
p111219_021216.rf

s131218_015812.rf
s131218_050746.rf
p131218_015824.rf
p131218_032152.rf
p131218_050800.rf

t141213_001159.rf
t141213_011933.rf
t141213_022726.rf
t141213_033459.rf
t141213_044231.rf
t141213_055009.rf
t141213_214317.rf
t141213_225049.rf
t141213_235819.rf
t141214_010553.rf
t141214_021346.rf 
t141214_032119.rf
t141214_042901.rf 
t141214_053639.rf 
t141216_212607.rf
t141216_223337.rf
t141216_234109.rf
t141217_004843.rf
t141217_015625.rf
t141217_030404.rf
t141217_041141.rf
t141217_051919.rf
t141217_223129.rf
t141218_052008.rf

# PSR J1824-2452A
# TODO
